Multivariable Mendelian randomization • MendelianRandomization
…
Multivariable Mendelian randomization

      Source: vignettes/Multivariable_MR_Methods.Rmd
      Multivariable_MR_Methods.Rmd

An analytic approach when genetic variants are associated with
multiple risk factors is multivariable Mendelian randomization,
introduced in Burgess and Thompson (2015) “Multivariable Mendelian
randomization: the use of pleiotropic genetic variants to estimate
causal effects”, doi: 10.1093/aje/kwu283.

There are two contexts in which we envision the method being used.
First, when there is a set of related risk factors, such as lipid
fractions. It is difficult to find genetic predictors of HDL-cholesterol
that do not also predict LDL-cholesterol and/or triglycerides.
Multivariable Mendelian randomization allows genetic variants to be
associated with all the risk factors in the model provided that they do
not influence the outcome via other pathways. Secondly, when there is a
network of risk factors, typically a primary risk factor and a secondary
risk factor or mediator. In both cases, multivariable estimates reflect
direct causal effects - the result of intervening on the risk factor
under analysis while keeping other risk factors in the model fixed.

the MRMVInput format

As the multivariable method requires genetic associations with
multiple risk factors, a different input function is needed:
mr_mvinput, which creates an MRMVInput object:

MVMRInputObject <- mr_mvinput(bx = cbind(ldlc, hdlc, trig),
                              bxse = cbind(ldlcse, hdlcse, trigse),
                              by = chdlodds, 
                              byse = chdloddsse)

MVMRInputObject

##     SNP exposure_1.beta exposure_2.beta exposure_3.beta exposure_1.se
## 1 snp_1           0.026           0.002           0.016         0.004
## 2 snp_2          -0.044           0.005          -0.004         0.004
## 3 snp_3          -0.038           0.003          -0.009         0.004
##   exposure_2.se exposure_3.se outcome.beta outcome.se
## 1         0.004         0.008       0.0677     0.0286
## 2         0.004         0.008      -0.1625     0.0300
## 3         0.004         0.008      -0.1054     0.0310
##  [ reached 'max' / getOption("max.print") -- omitted 25 rows ]
…
